sim/tb_pipelined_riscv.vcd
$date
	Wed May 27 15:28:34 2026
$end
$version
	Icarus Verilog
$end
$timescale
	1ps
$end
$scope module tb_pipelined_riscv $end
$var wire 1 ! VDD $end
$var wire 1 " VSS $end
$var wire 32 # proc_data_out [31:0] $end
$var wire 4 $ proc_data_mask [3:0] $end
$var wire 32 % proc_data_in [31:0] $end
$var wire 32 & inst_addr [31:0] $end
$var wire 32 ' inst [31:0] $end
$var wire 1 ( data_wr $end
$var wire 32 ) data_addr [31:0] $end
$var reg 1 * clk $end
$var reg 1 + nrst $end
$var integer 32 , i [31:0] $end
$scope module UUT $end
$var wire 1 * clk $end
$var wire 32 - data_in [31:0] $end
$var wire 1 . id_writes_reg $end
$var wire 32 / inst [31:0] $end
$var wire 32 0 inst_addr [31:0] $end
$var wire 1 + nrst $end
$var wire 32 1 pc_EXE [31:0] $end
$var wire 32 2 pc_ID [31:0] $end
$var wire 32 3 pc_IF [31:0] $end
$var wire 32 4 pc_MEM [31:0] $end
$var wire 32 5 pc_WB [31:0] $end
$var wire 32 6 s_rs1 [31:0] $end
$var wire 32 7 s_rs2 [31:0] $end
$var wire 1 8 stall $end
$var wire 5 9 rs2 [4:0] $end
$var wire 5 : rs1 [4:0] $end
$var wire 5 ; rd [4:0] $end
$var wire 7 < opcode_IF [6:0] $end
$var wire 7 = opcode [6:0] $end
$var wire 32 > imm_u [31:0] $end
$var wire 32 ? imm_s [31:0] $end
$var wire 32 @ imm_j [31:0] $end
$var wire 32 A imm_i [31:0] $end
$var wire 32 B imm_b [31:0] $end
$var wire 7 C funct7 [6:0] $end
$var wire 3 D funct3 [2:0] $end
$var reg 32 E ALU_MEM_WB [31:0] $end
$var reg 32 F IMEM_RF [31:0] $end
$var reg 32 G IMM_REG [31:0] $end
$var reg 32 H PC_ALU_DMEM [31:0] $end
$var reg 32 I PC_EXE_MEM [31:0] $end
$var reg 32 J PC_ID_EXE [31:0] $end
$var reg 32 K PC_MEM_WB [31:0] $end
$var reg 32 L PC_PC_ID_EXE [31:0] $end
$var reg 32 M REG_RD1 [31:0] $end
$var reg 32 N REG_RD2_1 [31:0] $end
$var reg 32 O REG_RD2_2 [31:0] $end
$var reg 32 P SHIFTED_MEM [31:0] $end
$var reg 32 Q alu_out [31:0] $end
$var reg 1 R branch_taken $end
$var reg 2 S byte_offset [1:0] $end
$var reg 32 T data_addr [31:0] $end
$var reg 4 U data_mask [3:0] $end
$var reg 32 V data_out [31:0] $end
$var reg 1 ( data_wr $end
$var reg 1 W flush $end
$var reg 3 X funct3_EXE [2:0] $end
$var reg 3 Y funct3_ID [2:0] $end
$var reg 3 Z funct3_MEM [2:0] $end
$var reg 7 [ funct7_ID [6:0] $end
$var reg 32 \ fwd_rs1 [31:0] $end
$var reg 32 ] fwd_rs2 [31:0] $end
$var reg 32 ^ load_addr [31:0] $end
$var reg 32 _ next_pc [31:0] $end
$var reg 7 ` opcode_EXE [6:0] $end
$var reg 7 a opcode_ID [6:0] $end
$var reg 7 b opcode_MEM [6:0] $end
$var reg 32 c pc [31:0] $end
$var reg 5 d rd_EXE [4:0] $end
$var reg 5 e rd_ID [4:0] $end
$var reg 5 f rd_MEM [4:0] $end
$var reg 5 g rd_WB [4:0] $end
$var reg 32 h reg_rs1 [31:0] $end
$var reg 32 i reg_rs2 [31:0] $end
$var reg 5 j rs1_ID [4:0] $end
$var reg 5 k rs2_ID [4:0] $end
$var reg 32 l shifted_data [31:0] $end
$var reg 32 m wr_data_WB [31:0] $end
$var reg 1 n wr_en_EXE $end
$var reg 1 o wr_en_ID $end
$var reg 1 p wr_en_MEM $end
$var reg 1 q wr_en_WB $end
$var integer 32 r i [31:0] $end
$upscope $end
$upscope $end
$enddefinitions $end
$comment Show the parameter values. $end
$dumpall
$end
#0
$dumpvars
b100000 r
0q
0p
0o
0n
b0 m
b0 l
b0 k
b0 j
b0 i
b0 h
b0 g
b0 f
b0 e
b0 d
b0 c
b0 b
b0 a
b0 `
b100 _
b0 ^
b0 ]
b0 \
b0 [
b0 Z
b0 Y
b0 X
0W
b0 V
b0 U
b0 T
b0 S
0R
b0 Q
b0 P
b0 O
b0 N
b0 M
b0 L
b0 K
b0 J
b0 I
b0 H
b0 G
b0 F
b0 E
b0 D
b0 C
b0 B
b0 A
b0 @
b0 ?
b0 >
b0 =
b10011 <
b0 ;
b0 :
b0 9
08
b0 7
b0 6
b0 5
b0 4
b0 3
b0 2
b0 1
b0 0
b10100010011 /
0.
b0 -
bx ,
0+
0*
b0 )
0(
b10100010011 '
b0 &
b0 %
b0 $
b0 #
0"
1!
$end
#10000
b100000 r
1*
#20000
0*
#30000
b100000 r
1*
#40000
0*
#50000
b100000 r
1*
#60000
0*
#70000
b100000 r
1*
#80000
0*
#90000
b100000 r
1*
#100000
0*
#110000
b100000 r
1*
#120000
0*
#130000
b100000 r
1*
#140000
0*
#150000
b100000 r
1*
#160000
0*
#170000
b100000 r
1*
#180000
0*
#190000
b100000 r
1*
#200000
0*
1+
#210000
1.
b10011 =
b1010 ;
b1010 ?
b1010 B
b1000 _
b10100010011 F
b100 3
b110010000000000000010010011 '
b110010000000000000010010011 /
b100 &
b100 0
b100 c
1*
#220000
0*
#230000
b1100 _
b1 ;
b100 9
b11 C
b1100100 A
b1100001 ?
b100001100000 B
b110010000000000000000000000 >
b1100100 @
b1000 3
b11111100111000000000000100010011 '
b11111100111000000000000100010011 /
b1000 &
b1000 0
b1000 c
1o
b1010 e
b10011 a
b100 2
b100 L
b110010000000000000010010011 F
1*
#240000
0*
#250000
b1100100 Q
b10 ;
b1110 9
b1111110 C
b11111111111111111111111111001110 A
b11111111111111111111111111000010 ?
b11111111111111111111011111000010 B
b11111100111000000000000000000000 >
b11111111111100000000011111001110 @
b10000 _
b110011 <
1n
b1010 d
b10011 `
b1100100 G
b11 [
b100 k
b1 e
b100 1
b100 J
b1000 2
b1000 L
b11111100111000000000000100010011 F
b1100 3
b1000001000000110110011 '
b1000001000000110110011 /
b1100 &
b1100 0
b1100 c
1*
#260000
0*
#270000
b100011 <
1q
b1010 g
b10100 _
b11111111111111111111111111001110 Q
b110011 =
b11 ;
b1 :
b10 9
b0 C
b10 A
b11 ?
b100000000010 B
b1000001000000000000000 >
b1000000000000010 @
b10000 3
b1101010010000000100011 '
b1101010010000000100011 /
b10000 &
b10000 0
b10000 c
1p
b1010 f
b10011 b
b1 d
b100 4
b100 I
b1100100 H
b11111111111111111111111111001110 G
b1111110 [
b1110 k
b10 e
b1000 1
b1000 J
b1100 2
b1100 L
b1000001000000110110011 F
1*
#280000
0*
#290000
0.
b1100100 6
b1100100 \
b1100100 m
b1 g
1q
b11111111111111111111111111001110 7
b11111111111111111111111111001110 ]
b110010 Q
b100011 =
b0 ;
b10 D
b1010 :
b11 9
b11 A
b0 ?
b0 B
b1101010010000000000000 >
b1010010100000000010 @
b11000 _
b10011 <
b1 f
b100 5
b100 K
b1100100 E
b10 d
b1000 4
b1000 I
b11111111111111111111111111001110 H
b10 G
b0 [
b10 k
b1 j
b11 e
b110011 a
b1100 1
b1100 J
b10000 2
b10000 L
b1101010010000000100011 F
b10100 3
b11001000000000000010010011 '
b11001000000000000010010011 /
b10100 &
b10100 0
b10100 c
1*
#300000
0*
#310000
1.
b10 g
b11111111111111111111111111001110 m
1q
b110010 7
b110010 ]
b0 6
b0 \
b11100 _
b0 Q
b10011 =
b1 ;
b0 D
b0 :
b10010 9
b1 C
b110010 A
b100001 ?
b100000100000 B
b11001000000000000000000000 >
b110010 @
b11000 3
b110010000000000000100010011 '
b110010000000000000100010011 /
b11000 &
b11000 0
b11000 c
b10 f
b1000 5
b1000 K
b11111111111111111111111111001110 E
b11 d
b110011 `
b1100 4
b1100 I
b11111111111111111111111111001110 O
b110010 H
b0 G
0o
b10 Y
b11 k
b1010 j
b0 e
b100011 a
b10000 1
b10000 J
b10100 2
b10100 L
b11001000000000000010010011 F
1*
#320000
0*
#330000
b11 g
b110010 m
1q
b110010 #
b110010 V
b1111 $
b1111 U
1(
b0 7
b0 ]
b110010 Q
b10 ;
b100 9
b11 C
b1100100 A
b1100010 ?
b1100010 B
b110010000000000000000000000 >
b1100100 @
b100000 _
b110011 <
b11 f
b110011 b
b1100 5
b1100 K
b110010 E
0n
b10 X
b0 d
b100011 `
b10000 4
b10000 I
b110010 O
b0 H
b110010 G
1o
b1 [
b0 Y
b10010 k
b0 j
b1 e
b10011 a
b10100 1
b10100 J
b11000 2
b11000 L
b110010000000000000100010011 F
b11100 3
b1000000001000001000000110110011 '
b1000000001000001000000110110011 /
b11100 &
b11100 0
b11100 c
1*
#340000
0*
#350000
b100011 <
b11111111111111111111111111001110 i
b1100100 h
b0 g
b0 m
0q
b100100 _
b1100100 Q
b110011 =
b11 ;
b1 :
b10 9
b100000 C
b10000000010 A
b10000000011 ?
b110000000010 B
b1000000001000001000000000000000 >
b1000010000000010 @
0(
b0 #
b0 V
b0 $
b0 U
b100000 3
b1101010010001000100011 '
b1101010010001000100011 /
b100000 &
b100000 0
b100000 c
0p
b10 Z
b0 f
b100011 b
b10000 5
b10000 K
b0 E
1n
b0 X
b1 d
b10011 `
b10100 4
b10100 I
b0 O
b110010 H
b1100100 G
b11 [
b100 k
b10 e
b11000 1
b11000 J
b11100 2
b11100 L
b1000000001000001000000110110011 F
b110010 %
b110010 -
1*
#360000
0*
#370000
0.
b110010 6
b110010 \
b110010 i
b0 h
b110010 m
1q
b1 g
b11111111111111111111111111001110 Q
b1100100 7
b1100100 ]
b100011 =
b100 ;
b10 D
b1010 :
b11 9
b0 C
b11 A
b100 ?
b100 B
b1101010010000000000000 >
b1010010100000000010 @
b101000 _
b110111 <
1p
b0 Z
b1 f
b10011 b
b10100 5
b10100 K
b110010 E
b10 d
b11000 4
b11000 I
b1100100 H
b10000000010 G
b100000 [
b10 k
b1 j
b11 e
b110011 a
b11100 1
b11100 J
b11111111111111111111111111001110 N
b1100100 M
b100000 2
b100000 L
b1101010010001000100011 F
b100100 3
b10101010101010100101000010110111 '
b10101010101010100101000010110111 /
b100100 &
b100100 0
b100100 c
1*
#380000
0*
#390000
1.
b10011 <
b0 i
b10 g
b1100100 m
1q
b101100 _
b100 Q
b11111111111111111111111111001110 7
b11111111111111111111111111001110 ]
b0 6
b0 \
b110111 =
b1 ;
b101 D
b10100 :
b1010 9
b1010101 C
b11111111111111111111101010101010 A
b11111111111111111111101010100001 ?
b11111111111111111111101010100000 B
b10101010101010100101000000000000 >
b11111111111110100101001010101010 @
b101000 3
b1010101010100001000000010010011 '
b1010101010100001000000010010011 /
b101000 &
b101000 0
b101000 c
b10 f
b11000 5
b11000 K
b1100100 E
b11 d
b110011 `
b11100 4
b11100 I
b1100100 O
b11111111111111111111111111001110 H
b100 G
0o
b0 [
b10 Y
b11 k
b1010 j
b100 e
b100011 a
b100000 1
b100000 J
b110010 N
b0 M
b100100 2
b100100 L
b10101010101010100101000010110111 F
1*
#400000
0*
#410000
1.
b110010 h
b11 g
b11111111111111111111111111001110 m
1q
b11111111111111111111111111001110 #
b11111111111111111111111111001110 V
b1111 $
b1111 U
b0 %
b0 -
b100 )
b100 T
1(
b10101010101010100101000000000000 Q
b0 7
b0 ]
b10011 =
b0 D
b1 :
b10101 9
b101010 C
b10101010101 A
b10101000001 ?
b110101000000 B
b1010101010100001000000000000000 >
b1000110101010100 @
b110000 _
b110111 <
b11 f
b110011 b
b11100 5
b11100 K
b11111111111111111111111111001110 E
0n
b10 X
b100 d
b100011 `
b100000 4
b100000 I
b11111111111111111111111111001110 O
b100 H
b10101010101010100101000000000000 G
1o
b1010101 [
b101 Y
b1010 k
b10100 j
b1 e
b110111 a
b100100 1
b100100 J
b0 N
b101000 2
b101000 L
b1010101010100001000000010010011 F
b101100 3
b1010101010101011011000100110111 '
b1010101010101011011000100110111 /
b101100 &
b101100 0
b101100 c
1*
#420000
0*
#430000
b10011 <
b0 h
b100 g
b0 m
0q
b110100 _
b10101010101010100101010101010101 Q
b10101010101010100101000000000000 6
b10101010101010100101000000000000 \
b110111 =
b10 ;
b11 D
b1011 :
b10101000010 ?
b10101000010 B
b1010101010101011011000000000000 >
b1011011110101010100 @
0(
b0 #
b0 V
b0 )
b0 T
b0 $
b0 U
b110000 3
b10101010101000010000000100010011 '
b10101010101000010000000100010011 /
b110000 &
b110000 0
b110000 c
0p
b10 Z
b100 f
b100011 b
b100000 5
b100000 K
b100 E
1n
b101 X
b1 d
b110111 `
b100100 4
b100100 I
b0 O
b10101010101010100101000000000000 H
b10101010101 G
b101010 [
b0 Y
b10101 k
b1 j
b10011 a
b101000 1
b101000 J
b110010 M
b101100 2
b101100 L
b1010101010101011011000100110111 F
b110010 %
b110010 -
1*
#440000
0*
#450000
1.
b1100100 h
b10101010101010100101000000000000 m
1q
b1 g
b1010101010101011011000000000000 Q
b0 6
b0 \
b10011 =
b0 D
b10 :
b1010 9
b1010101 C
b11111111111111111111101010101010 A
b11111111111111111111101010100010 ?
b11111111111111111111001010100010 B
b10101010101000010000000000000000 >
b11111111111100010000001010101010 @
b111000 _
b110011 <
1p
b101 Z
b1 f
b110111 b
b100100 5
b100100 K
b10101010101010100101000000000000 E
b0 X
b10011 `
b101000 4
b101000 I
b10101010101010100101010101010101 H
b1010101010101011011000000000000 G
b11 Y
b1011 j
b10 e
b110111 a
b101100 1
b101100 J
b0 M
b110000 2
b110000 L
b10101010101000010000000100010011 F
b110100 3
b1000001111000110110011 '
b1000001111000110110011 /
b110100 &
b110100 0
b110100 c
1*
#460000
0*
#470000
b100011 <
b1100100 i
b10101010101010100101010101010101 h
b10101010101010100101010101010101 m
1q
b111100 _
b1010101010101011010101010101010 Q
b1010101010101011011000000000000 6
b1010101010101011011000000000000 \
b110011 =
b11 ;
b111 D
b1 :
b10 9
b0 C
b10 A
b11 ?
b100000000010 B
b1000001111000000000000 >
b1111000000000010 @
b111000 3
b1101010010010000100011 '
b1101010010010000100011 /
b111000 &
b111000 0
b111000 c
b0 Z
b10011 b
b101000 5
b101000 K
b10101010101010100101010101010101 E
b11 X
b10 d
b110111 `
b101100 4
b101100 I
b1010101010101011011000000000000 H
b11111111111111111111101010101010 G
b1010101 [
b0 Y
b1010 k
b10 j
b10011 a
b110000 1
b110000 J
b1100100 M
b110100 2
b110100 L
b1000001111000110110011 F
1*
#480000
0*
#490000
0.
b11111111111111111111111111001110 i
b0 h
b10 g
b1010101010101011011000000000000 m
1q
b0 Q
b1010101010101011010101010101010 7
b1010101010101011010101010101010 ]
b10101010101010100101010101010101 6
b10101010101010100101010101010101 \
b100011 =
b1000 ;
b10 D
b1010 :
b11 9
b11 A
b1000 ?
b1000 B
b1101010010000000000000 >
b1010010100000000010 @
b1000000 _
b110011 <
b11 Z
b10 f
b110111 b
b101100 5
b101100 K
b1010101010101011011000000000000 E
b0 X
b10011 `
b110000 4
b110000 I
b1010101010101011010101010101010 H
b10 G
b0 [
b111 Y
b10 k
b1 j
b11 e
b110011 a
b110100 1
b110100 J
b1100100 N
b10101010101010100101010101010101 M
b111000 2
b111000 L
b1101010010010000100011 F
b111100 3
b1000001110000110110011 '
b1000001110000110110011 /
b111100 &
b111100 0
b111100 c
1*
#500000
0*
#510000
1.
b100011 <
b1010101010101011010101010101010 i
b10101010101010100101010101010101 h
b1010101010101011010101010101010 m
1q
b1000100 _
b1000 Q
b0 7
b0 ]
b0 6
b0 \
b110011 =
b11 ;
b110 D
b1 :
b10 9
b10 A
b11 ?
b100000000010 B
b1000001110000000000000 >
b1110000000000010 @
b1000000 3
b1101010010011000100011 '
b1101010010011000100011 /
b1000000 &
b1000000 0
b1000000 c
b0 Z
b10011 b
b110000 5
b110000 K
b1010101010101011010101010101010 E
b111 X
b11 d
b110011 `
b110100 4
b110100 I
b1010101010101011010101010101010 O
b0 H
b1000 G
0o
b10 Y
b11 k
b1010 j
b1000 e
b100011 a
b111000 1
b111000 J
b11111111111111111111111111001110 N
b0 M
b111100 2
b111100 L
b1000001110000110110011 F
1*
#520000
0*
#530000
0.
b0 i
b0 h
b11 g
b0 m
1q
b1111 $
b1111 U
b0 %
b0 -
b1000 )
b1000 T
1(
b11111111111111111111111111111111 Q
b1010101010101011010101010101010 7
b1010101010101011010101010101010 ]
b10101010101010100101010101010101 6
b10101010101010100101010101010101 \
b100011 =
b1100 ;
b10 D
b1010 :
b11 9
b11 A
b1100 ?
b1100 B
b1101010010000000000000 >
b1010010100000000010 @
b1001000 _
b110011 <
b111 Z
b11 f
b110011 b
b110100 5
b110100 K
b0 E
0n
b10 X
b1000 d
b100011 `
b111000 4
b111000 I
b0 O
b1000 H
b10 G
1o
b110 Y
b10 k
b1 j
b11 e
b110011 a
b111100 1
b111100 J
b1010101010101011010101010101010 N
b10101010101010100101010101010101 M
b1000000 2
b1000000 L
b1101010010011000100011 F
b1000100 3
b1000001100000110110011 '
b1000001100000110110011 /
b1000100 &
b1000100 0
b1000100 c
1*
#540000
0*
#550000
1.
b100011 <
b1010101010101011010101010101010 i
b10101010101010100101010101010101 h
b1000 g
0q
0(
b110010 %
b110010 -
b0 )
b0 T
b0 $
b0 U
b1001100 _
b1100 Q
b11111111111111111111111111111111 7
b11111111111111111111111111111111 ]
b0 6
b0 \
b110011 =
b11 ;
b100 D
b1 :
b10 9
b10 A
b11 ?
b100000000010 B
b1000001100000000000000 >
b1100000000000010 @
b1001000 3
b1101010010100000100011 '
b1101010010100000100011 /
b1001000 &
b1001000 0
b1001000 c
0p
b10 Z
b1000 f
b100011 b
b111000 5
b111000 K
b1000 E
1n
b110 X
b11 d
b110011 `
b111100 4
b111100 I
b1010101010101011010101010101010 O
b11111111111111111111111111111111 H
b1100 G
0o
b10 Y
b11 k
b1010 j
b1100 e
b100011 a
b1000000 1
b1000000 J
b0 N
b0 M
b1000100 2
b1000100 L
b1000001100000110110011 F
1*
#560000
0*
#570000
0.
b11111111111111111111111111111111 i
b0 h
b11111111111111111111111111111111 m
1q
b11 g
b11111111111111111111111111111111 #
b11111111111111111111111111111111 V
b1111 $
b1111 U
b0 %
b0 -
b1100 )
b1100 T
1(
b11111111111111111111111111111111 Q
b1010101010101011010101010101010 7
b1010101010101011010101010101010 ]
b10101010101010100101010101010101 6
b10101010101010100101010101010101 \
b100011 =
b10000 ;
b10 D
b1010 :
b11 9
b11 A
b10000 ?
b10000 B
b1101010010000000000000 >
b1010010100000000010 @
b1010000 _
b10011 <
1p
b110 Z
b11 f
b110011 b
b111100 5
b111100 K
b11111111111111111111111111111111 E
0n
b10 X
b1100 d
b100011 `
b1000000 4
b1000000 I
b11111111111111111111111111111111 O
b1100 H
b10 G
1o
b100 Y
b10 k
b1 j
b11 e
b110011 a
b1000100 1
b1000100 J
b1010101010101011010101010101010 N
b10101010101010100101010101010101 M
b1001000 2
b1001000 L
b1101010010100000100011 F
b1001100 3
b100000000000010010011 '
b100000000000010010011 /
b1001100 &
b1001100 0
b1001100 c
1*
#580000
0*
#590000
1.
b10101010101010100101010101010101 i
b1100 g
b0 m
0q
b1010100 _
b10000 Q
b11111111111111111111111111111111 7
b11111111111111111111111111111111 ]
b0 6
b0 \
b10011 =
b1 ;
b0 D
b0 :
b1 9
b1 A
b1 ?
b100000000000 B
b100000000000000000000 >
b100000000000 @
0(
b0 #
b0 V
b0 )
b0 T
b0 $
b0 U
b1010000 3
b1111100000000000100010011 '
b1111100000000000100010011 /
b1010000 &
b1010000 0
b1010000 c
0p
b10 Z
b1100 f
b100011 b
b1000000 5
b1000000 K
b1100 E
1n
b100 X
b11 d
b110011 `
b1000100 4
b1000100 I
b1010101010101011010101010101010 O
b11111111111111111111111111111111 H
b10000 G
0o
b10 Y
b11 k
b1010 j
b10000 e
b100011 a
b1001000 1
b1001000 J
b11111111111111111111111111111111 N
b0 M
b1001100 2
b1001100 L
b100000000000010010011 F
b110010 %
b110010 -
1*
#600000
0*
#610000
b0 i
b11111111111111111111111111111111 m
1q
b11 g
b11111111111111111111111111111111 #
b11111111111111111111111111111111 V
b1111 $
b1111 U
b0 %
b0 -
b10000 )
b10000 T
1(
b1 Q
b10101010101010100101010101010101 7
b10101010101010100101010101010101 ]
b10 ;
b11111 9
b11111 A
b10 ?
b10 B
b1111100000000000000000000 >
b100000011110 @
b1011000 _
b110011 <
1p
b100 Z
b11 f
b110011 b
b1000100 5
b1000100 K
b11111111111111111111111111111111 E
0n
b10 X
b10000 d
b100011 `
b1001000 4
b1001000 I
b11111111111111111111111111111111 O
b10000 H
b1 G
1o
b0 Y
b1 k
b0 j
b1 e
b10011 a
b1001100 1
b1001100 J
b10101010101010100101010101010101 N
b1010000 2
b1010000 L
b1111100000000000100010011 F
b1010100 3
b1000001001000110110011 '
b1000001001000110110011 /
b1010100 &
b1010100 0
b1010100 c
1*
#620000
0*
#630000
b1010101010101011010101010101010 i
b10101010101010100101010101010101 h
b100011 <
b10000 g
b0 m
0q
b1011100 _
b11111 Q
b0 7
b0 ]
b110011 =
b11 ;
b1 D
b1 :
b10 9
b10 A
b11 ?
b100000000010 B
b1000001001000000000000 >
b1001000000000010 @
0(
b0 #
b0 V
b0 )
b0 T
b0 $
b0 U
b1011000 3
b1101010010101000100011 '
b1101010010101000100011 /
b1011000 &
b1011000 0
b1011000 c
0p
b10 Z
b10000 f
b100011 b
b1001000 5
b1001000 K
b10000 E
1n
b0 X
b1 d
b10011 `
b1001100 4
b1001100 I
b10101010101010100101010101010101 O
b1 H
b11111 G
b11111 k
b10 e
b1010000 1
b1010000 J
b0 N
b1010100 2
b1010100 L
b1000001001000110110011 F
b110010 %
b110010 -
1*
#640000
0*
#650000
0.
b1 6
b1 \
b11111111111111111111111111111111 i
b0 h
b1 m
1q
b1 g
b10000000000000000000000000000000 Q
b11111 7
b11111 ]
b100011 =
b10100 ;
b10 D
b1010 :
b11 9
b11 A
b10100 ?
b10100 B
b1101010010000000000000 >
b1010010100000000010 @
b1100000 _
b110111 <
1p
b0 Z
b1 f
b10011 b
b1001100 5
b1001100 K
b1 E
b10 d
b1010000 4
b1010000 I
b0 O
b11111 H
b10 G
b1 Y
b10 k
b1 j
b11 e
b110011 a
b1010100 1
b1010100 J
b1010101010101011010101010101010 N
b10101010101010100101010101010101 M
b1011000 2
b1011000 L
b1101010010101000100011 F
b1011100 3
b10000000000000000000000010110111 '
b10000000000000000000000010110111 /
b1011100 &
b1011100 0
b1011100 c
1*
#660000
0*
#670000
1.
b10011 <
b0 i
b10 g
b11111 m
1q
b1100100 _
b10100 Q
b10000000000000000000000000000000 7
b10000000000000000000000000000000 ]
b0 6
b0 \
b110111 =
b1 ;
b0 D
b0 :
b0 9
b1000000 C
b11111111111111111111100000000000 A
b11111111111111111111100000000001 ?
b11111111111111111111100000000000 B
b10000000000000000000000000000000 >
b11111111111100000000000000000000 @
b1100000 3
b1000000010010011 '
b1000000010010011 /
b1100000 &
b1100000 0
b1100000 c
b10 f
b1010000 5
b1010000 K
b11111 E
b1 X
b11 d
b110011 `
b1010100 4
b1010100 I
b11111 O
b10000000000000000000000000000000 H
b10100 G
0o
b10 Y
b11 k
b1010 j
b10100 e
b100011 a
b1011000 1
b1011000 J
b11111111111111111111111111111111 N
b0 M
b1011100 2
b1011100 L
b10000000000000000000000010110111 F
1*
#680000
0*
#690000
1.
b1 h
b11 g
b10000000000000000000000000000000 m
1q
b10000000000000000000000000000000 #
b10000000000000000000000000000000 V
b1111 $
b1111 U
b0 %
b0 -
b10100 )
b10100 T
1(
b10000000000000000000000000000000 Q
b0 7
b0 ]
b10011 =
b1 :
b0 C
b0 A
b1 ?
b100000000000 B
b1000000000000000 >
b1000000000000000 @
b1101000 _
b110011 <
b1 Z
b11 f
b110011 b
b1010100 5
b1010100 K
b10000000000000000000000000000000 E
0n
b10 X
b10100 d
b100011 `
b1011000 4
b1011000 I
b10000000000000000000000000000000 O
b10100 H
b10000000000000000000000000000000 G
1o
b1000000 [
b0 Y
b0 k
b0 j
b1 e
b110111 a
b1011100 1
b1011100 J
b0 N
b1100000 2
b1100000 L
b1000000010010011 F
b1100100 3
b1000001101000110110011 '
b1000001101000110110011 /
b1100100 &
b1100100 0
b1100100 c
1*
#700000
0*
#710000
b100011 <
b11111 i
b10100 g
b0 m
0q
b1101100 _
b10000000000000000000000000000000 Q
b10000000000000000000000000000000 6
b10000000000000000000000000000000 \
b110011 =
b11 ;
b101 D
b10 9
b10 A
b11 ?
b100000000010 B
b1000001101000000000000 >
b1101000000000010 @
0(
b0 #
b0 V
b0 )
b0 T
b0 $
b0 U
b1101000 3
b1101010010110000100011 '
b1101010010110000100011 /
b1101000 &
b1101000 0
b1101000 c
0p
b10 Z
b10100 f
b100011 b
b1011000 5
b1011000 K
b10100 E
1n
b0 X
b1 d
b110111 `
b1011100 4
b1011100 I
b0 O
b10000000000000000000000000000000 H
b0 G
b0 [
b1 j
b10011 a
b1100000 1
b1100000 J
b1 M
b1100100 2
b1100100 L
b1000001101000110110011 F
b110010 %
b110010 -
1*
#720000
0*
#730000
0.
b10000000000000000000000000000000 i
b0 h
b10000000000000000000000000000000 m
1q
b1 g
b1 Q
b11111 7
b11111 ]
b100011 =
b11000 ;
b10 D
b1010 :
b11 9
b11 A
b11000 ?
b11000 B
b1101010010000000000000 >
b1010010100000000010 @
b1110000 _
b110011 <
1p
b0 Z
b1 f
b110111 b
b1011100 5
b1011100 K
b10000000000000000000000000000000 E
b10011 `
b1100000 4
b1100000 I
b10 G
b101 Y
b10 k
b11 e
b110011 a
b1100100 1
b1100100 J
b11111 N
b1101000 2
b1101000 L
b1101010010110000100011 F
b1101100 3
b1000000001000001101000110110011 '
b1000000001000001101000110110011 /
b1101100 &
b1101100 0
b1101100 c
1*
#740000
0*
#750000
1.
b100011 <
b11111 i
b10000000000000000000000000000000 h
b10000000000000000000000000000000 m
1q
b1110100 _
b11000 Q
b1 7
b1 ]
b0 6
b0 \
b110011 =
b11 ;
b101 D
b1 :
b10 9
b100000 C
b10000000010 A
b10000000011 ?
b110000000010 B
b1000000001000001101000000000000 >
b1101010000000010 @
b1110000 3
b1101010010111000100011 '
b1101010010111000100011 /
b1110000 &
b1110000 0
b1110000 c
b10011 b
b1100000 5
b1100000 K
b101 X
b11 d
b110011 `
b1100100 4
b1100100 I
b11111 O
b1 H
b11000 G
0o
b10 Y
b11 k
b1010 j
b11000 e
b100011 a
b1101000 1
b1101000 J
b10000000000000000000000000000000 N
b0 M
b1101100 2
b1101100 L
b1000000001000001101000110110011 F
1*
#760000
0*
#770000
0.
b1 i
b0 h
b11 g
b1 m
1q
b1 #
b1 V
b1111 $
b1111 U
b0 %
b0 -
b11000 )
b11000 T
1(
b11111111111111111111111111111111 Q
b11111 7
b11111 ]
b10000000000000000000000000000000 6
b10000000000000000000000000000000 \
b100011 =
b11100 ;
b10 D
b1010 :
b11 9
b0 C
b11 A
b11100 ?
b11100 B
b1101010010000000000000 >
b1010010100000000010 @
b1111000 _
b10011 <
b101 Z
b11 f
b110011 b
b1100100 5
b1100100 K
b1 E
0n
b10 X
b11000 d
b100011 `
b1101000 4
b1101000 I
b1 O
b11000 H
b10000000010 G
1o
b100000 [
b101 Y
b10 k
b1 j
b11 e
b110011 a
b1101100 1
b1101100 J
b11111 N
b10000000000000000000000000000000 M
b1110000 2
b1110000 L
b1101010010111000100011 F
b1110100 3
b11111111111100000000000010010011 '
b11111111111100000000000010010011 /
b1110100 &
b1110100 0
b1110100 c
1*
#780000
0*
#790000
1.
b0 i
b11000 g
b0 m
0q
b1111100 _
b11100 Q
b11111111111111111111111111111111 7
b11111111111111111111111111111111 ]
b0 6
b0 \
b10011 =
b1 ;
b0 D
b0 :
b11111 9
b1111111 C
b11111111111111111111111111111111 A
b11111111111111111111111111100001 ?
b11111111111111111111111111100000 B
b11111111111100000000000000000000 >
b11111111111100000000111111111110 @
0(
b0 #
b0 V
b0 )
b0 T
b0 $
b0 U
b1111000 3
b100000000000100010011 '
b100000000000100010011 /
b1111000 &
b1111000 0
b1111000 c
0p
b10 Z
b11000 f
b100011 b
b1101000 5
b1101000 K
b11000 E
1n
b101 X
b11 d
b110011 `
b1101100 4
b1101100 I
b11111 O
b11111111111111111111111111111111 H
b11100 G
0o
b0 [
b10 Y
b11 k
b1010 j
b11100 e
b100011 a
b1110000 1
b1110000 J
b1 N
b0 M
b1110100 2
b1110100 L
b11111111111100000000000010010011 F
b110010 %
b110010 -
1*
#800000
0*
#810000
b10000000000000000000000000000000 i
b11111111111111111111111111111111 m
1q
b11 g
b11111111111111111111111111111111 #
b11111111111111111111111111111111 V
b1111 $
b1111 U
b0 %
b0 -
b11100 )
b11100 T
1(
b11111111111111111111111111111111 Q
b0 7
b0 ]
b10 ;
b1 9
b0 C
b1 A
b10 ?
b10 B
b100000000000000000000 >
b100000000000 @
b10000000 _
b110011 <
1p
b101 Z
b11 f
b110011 b
b1101100 5
b1101100 K
b11111111111111111111111111111111 E
0n
b10 X
b11100 d
b100011 `
b1110000 4
b1110000 I
b11111111111111111111111111111111 O
b11100 H
b11111111111111111111111111111111 G
1o
b1111111 [
b0 Y
b11111 k
b0 j
b1 e
b10011 a
b1110100 1
b1110100 J
b0 N
b1111000 2
b1111000 L
b100000000000100010011 F
b1111100 3
b1000001010000110110011 '
b1000001010000110110011 /
b1111100 &
b1111100 0
b1111100 c
1*
#820000
0*
